#!/usr/local/Cellar/gnuplot/5.2.1/bin/gnuplot
#
#    
#    	G N U P L O T
#    	Version 5.2 patchlevel 1    last modified 2017-10-27 
#    
#    	Copyright (C) 1986-1993, 1998, 2004, 2007-2017
#    	Thomas Williams, Colin Kelley and many others
#    
#    	gnuplot home:     http://www.gnuplot.info
#    	faq, bugs, etc:   type "help FAQ"
#    	immediate help:   type "help"  (plot window: hit 'h')
# set terminal aqua 0 title "Figure 0" size 846,594 font "Times-Roman,14" enhanced solid
# set output
unset clip points
set clip one
unset clip two
set errorbars front 1.000000 
set border 31 front lt black linewidth 1.000 dashtype solid
set zdata 
set ydata 
set xdata 
set y2data 
set x2data 
set boxwidth
set style fill  empty border
set style rectangle back fc  bgnd fillstyle   solid 1.00 border lt -1
set style circle radius graph 0.02 
set style ellipse size graph 0.05, 0.03 angle 0 units xy
set dummy x, y
set format x "% h" 
set format y "10^{%L}" 
set format x2 "% h" 
set format y2 "% h" 
set format z "% h" 
set format cb "% h" 
set format r "% h" 
set ttics format "% h"
set timefmt "%d/%m/%y,%H:%M"
set angles radians
set tics back
unset grid
unset raxis
set theta counterclockwise right
set style parallel front  lt black linewidth 2.000 dashtype solid
set key title "" center
set key fixed left top vertical Right noreverse enhanced autotitle nobox font "Times New Roman,32"
set key noinvert samplen 4 spacing 1 width 0 height 0 
set key maxcolumns 0 maxrows 0
set key noopaque
unset label
set label 1 "" at 0.00000, 0.00000, 0.00000 left norotate font "Times New Roman,21" back nopoint
set label 2 "" at 0.00000, 0.00000, 0.00000 left norotate font "Times New Roman,21" back nopoint
set label 3 "" at 0.00000, 0.00000, 0.00000 left norotate font "Times New Roman,24" back nopoint
set label 4 "" at 0.00000, 0.00000, 0.00000 left norotate font "Times New Roman,10" back nopoint
set label 5 "" at 0.00000, 0.00000, 0.00000 left norotate font "Times New Roman,18" back nopoint
unset arrow
set style increment default
unset style line
unset style arrow
set style histogram clustered gap 2 title textcolor lt -1
unset object
set style textbox transparent margins  1.0,  1.0 border  lt -1 linewidth  1.0
set offsets 0, 0, 0, 0
set pointsize 3
set pointintervalbox 1
set encoding default
unset polar
unset parametric
unset decimalsign
unset micro
unset minussign
set view 60, 30, 1, 1
set view azimuth 0
set rgbmax 255
set samples 100, 100
set isosamples 10, 10
set surface 
unset contour
set cntrlabel  format '%8.3g' font '' start 5 interval 20
set mapping cartesian
set datafile separator whitespace
unset hidden3d
set cntrparam order 4
set cntrparam linear
set cntrparam levels auto 5
set cntrparam points 5
set size ratio 0 1,1
set origin 0,0
set style data points
set style function lines
unset xzeroaxis
unset yzeroaxis
unset zzeroaxis
unset x2zeroaxis
unset y2zeroaxis
set xyplane relative 0.5
set tics scale  1, 0.5, 1, 1, 1
set mxtics default
set mytics default
set mztics default
set mx2tics default
set my2tics default
set mcbtics default
set mrtics default
set nomttics
set xtics border in scale 1,0.5 mirror norotate  autojustify
set xtics  norangelimit 1 font "Times New Roman,32"
set ytics border in scale 1,0.5 mirror norotate  autojustify
set ytics  norangelimit logscale 10 font "Times New Roman,32"
set ztics border in scale 1,0.5 nomirror norotate  autojustify
set ztics  norangelimit autofreq  font "Times New Roman,32"
unset x2tics
unset y2tics
set cbtics border in scale 1,0.5 mirror norotate  autojustify
set cbtics  norangelimit autofreq  font "Times New Roman,36"
set rtics axis in scale 1,0.5 nomirror norotate  autojustify
set rtics  norangelimit autofreq  font "Times New Roman,36"
unset ttics
set title "" 
set title  font "Times New Roman,28" norotate
set timestamp bottom 
set timestamp "" 
set timestamp  font "" norotate
set trange [ * : * ] noreverse nowriteback
set urange [ * : * ] noreverse nowriteback
set vrange [ * : * ] noreverse nowriteback
set xlabel "反例の高さ" 
set xlabel  offset character 0, -0.5, 0 font "Times New Roman,42" textcolor lt -1 norotate
set x2label "" 
set x2label  font "" textcolor lt -1 norotate
set xrange [ 0.500000 : 5.50000 ] noreverse nowriteback
set x2range [ * : * ] noreverse nowriteback
set ylabel "行列の大きさ" 
set ylabel  offset character -3, 0, 0 font "Times New Roman,42" textcolor lt -1 rotate
set y2label "" 
set y2label  font "" textcolor lt -1 rotate
set yrange [ * : * ] noreverse nowriteback
set y2range [ * : * ] noreverse nowriteback
set zlabel "" 
set zlabel  font "" textcolor lt -1 norotate
set zrange [ * : * ] noreverse nowriteback
set cblabel "" 
set cblabel  font "" textcolor lt -1 rotate
set cbrange [ * : * ] noreverse nowriteback
set rlabel "" 
set rlabel  font "" textcolor lt -1 norotate
set rrange [ * : * ] noreverse nowriteback
unset logscale
set logscale y 10
unset jitter
set zero 1e-08
set lmargin  12
set bmargin  4
set rmargin  -1
set tmargin  -1
set locale "ja_JP.UTF-8"
set pm3d explicit at s
set pm3d scansautomatic
set pm3d interpolate 1,1 flush begin noftriangles noborder corners2color mean
set pm3d nolighting
set palette positive nops_allcF maxcolors 0 gamma 1.5 color model RGB 
set palette rgbformulae 7, 5, 15
set colorbox default
set colorbox vertical origin screen 0.9, 0.2 size screen 0.05, 0.6 front  noinvert bdefault
set style boxplot candles range  1.50 outliers pt 7 separation 1 labels auto unsorted
set loadpath 
set fontpath "Times New Roman,21" 
set psdir
set fit brief errorvariables nocovariancevariables errorscaling prescale nowrap v5
GNUTERM = "aqua"
## Last datafile plotted: "neq_output-3_input-2^3_state-6/matrix.dat"

set xlabel font "HiraMinPro-W3,32"
set ylabel font "HiraMinPro-W3,32"
set key title font "HiraMinPro-W3,32"

set autoscale y

plot "neq_output-2_input-2^3_state-6/matrix.dat" title "(i)" w lp lw 2, \
     "neq_output-2_input-2^3_state-6_non-delete/matrix.dat" title "(ii)" w lp lw 2, \
     "neq_output-2_input-2^3_state-6_copy-x2^2-x3/matrix.dat" title "(iii)" w lp lw 2, \
     "neq_output-3_input-2^3_state-6/matrix.dat" title "(iv)" w lp lw 2, \
     "neq_output-2_input-2^2_state-6/matrix.dat" title "(v)" w lp lw 2, \
     "neq_output-2_input-3^3_state-6/matrix.dat" title "(vi)" w lp lw 1 

#    EOF
